{
  "type": "service_account",
  "project_id": "test-ab458",
  "private_key_id": "27cc0970f4a21f90f1a62a86663223aa331718c1",
  "private_key": "-----BEGIN PRIVATE KEY-----\nMIIEvQIBADANBgkqhkiG9w0BAQEFAASCBKcwggSjAgEAAoIBAQDCqisXZ7fps62m\nzqxKRtjwFG63ePii2xb8SiNio2Woz5TfXR2tM7srLMSMOaPu1faZPbsZbYov5n8B\nLOz4snuZEbzs7BtyPRt/xm5HW5sJ2qVngtKlVoBLzHQMPATsJjhquo4y6jRx46wF\nJ9y2okYo3tInImWeGV5Ne422j64MZuhe/iSe2Yv0rMaTeROifjbaC17g0o4CJr6U\nvaeVauzQMrDEEqEt0lyE55FE32lhq8FnRell7ZFCPDxDbQqBBDCWb5+sB9Nk1hI2\npw5JmucWmn/1ecCrSDAMt6szbuC3lNEgWXDevkUZ3gu3AEnVx+WTqCuAXZxmLBw5\ndEg00zvHAgMBAAECggEAFgEGPe8Lau9UgbZ64yp++yRUH4kdEcuSHZKDzXKK2zob\nqePsptdiIM8+qFsbnLOy3D+OFqG7LQ7w7EEXyETkk7jdkipeL9uYcCkN7iL8s3Bz\noe+3v9i3R9okg/2E0OzBE89io361zundV/fZiwtswtHtD19j/SsA7eE5c5lqIxyM\nH6mDbgPPHDzcEdOSOCRlkp3pCAUynKvRZ6SGEpKjzeC01UuJmjV6bkeo0eQtrT7H\nICtJXDUEM992ZAYB2mRw8m19fcTQVHWTc4e9PVMYZdgHqQNpLHLd56txY/QjmOox\nPFg8dhjCrh3R5TvFjkL14T+sip3TRiKGbPVedpVDAQKBgQDzYh5N4dGuvDc2xgeK\ncsvUO9Do8wybBqN8Ub5wnxYQllCzeW0XAXpfUqqS2JVJ68gfMa5AAfcOhOxPamb3\nJu5nZC1XCESIfRInLHdTNn/0UmI0b9pW4ajCbPtRVBHmTn0JUgPdtrEXuQH5HlIy\nDmr/dEcC01apDXGIrEhwxIjIGQKBgQDMwYSAOS/F/xhigkJl8qW/Q/uUIlyHGWyn\n4O0MJHmvbArPvr8DEC1BEzPm3tjKQyS6BWfIGEUCtXHZ7Zso5txxmSe/IKRlH/Vo\nPKsBHrR2DTCj89LCQkuUhFHgzggfATiayz4MTXgjvbtzQEtNEJs8O2Lk3VNTasZO\ndG90m0oe3wKBgQDmv9UJdBsv9qTGmpQVsGcN7jRQV/dQl8eym3HaJwptaYZT0sEZ\n+b3C2IZ+OTe5YQFYieqyJurMajv9w1yh4NhRUEooZN9NJH9sgp0TWO2Rf/Y5zv6M\nNuCgjWDtJ67c0vd7ObYOpCJc4nw7a4L0kHTjg6O7yxEzsFo/AVChEcS5KQKBgEcH\nAj2wmL/oQ784TGwtBg4ZORYj7VD4ItcBkXla1dNieUWjd4NKg0hFrwVxXGadcAoP\ngfbJZHcSFhJw+BfyLZpCdKU6X4ysz2Z/VRqoWhVxceQN2piEgs9cL0L6dZq7w7T+\nt+FwpjJPyMysCvMKxa7ZMu8NT7BqI6xne5pJnCalAoGAb+vyX0jRf2NtkfGdOevD\nX+8hBwd6pqmiT2445iGM9i8x+TujGrHBMRqFDl9MjgcwaEnKhc3n2Nf4zLSJgbT7\nS4lbBSg3ubm3BugMgXArnYQmMLNPrtCdCbK/pBwanOjoKApDYuwi3c5QxGWjrjUT\nEO4GExh9JTCuEvqEtqQPv+A=\n-----END PRIVATE KEY-----\n",
  "client_email": "test-ab458@appspot.gserviceaccount.com",
  "client_id": "117462156411455589606",
  "auth_uri": "https://accounts.google.com/o/oauth2/auth",
  "token_uri": "https://oauth2.googleapis.com/token",
  "auth_provider_x509_cert_url": "https://www.googleapis.com/oauth2/v1/certs",
  "client_x509_cert_url": "https://www.googleapis.com/robot/v1/metadata/x509/test-ab458%40appspot.gserviceaccount.com"
}
